\headcommand {\slideentry {0}{0}{1}{1/1}{}{0}}
\headcommand {\beamer@framepages {1}{1}}
\headcommand {\slideentry {0}{0}{2}{2/2}{}{0}}
\headcommand {\beamer@framepages {2}{2}}
\headcommand {\slideentry {0}{0}{3}{3/8}{}{0}}
\headcommand {\beamer@framepages {3}{8}}
\headcommand {\slideentry {0}{0}{4}{9/9}{}{0}}
\headcommand {\beamer@framepages {9}{9}}
\headcommand {\slideentry {0}{0}{5}{10/12}{}{0}}
\headcommand {\beamer@framepages {10}{12}}
\headcommand {\slideentry {0}{0}{6}{13/13}{}{0}}
\headcommand {\beamer@framepages {13}{13}}
\headcommand {\beamer@partpages {1}{13}}
\headcommand {\beamer@subsectionpages {1}{13}}
\headcommand {\beamer@sectionpages {1}{13}}
\headcommand {\beamer@documentpages {13}}
\headcommand {\def \inserttotalframenumber {6}}
